{
  "name": "landcareresearch-g10k",
  "version": "0.1.9",
  "author": "landcareresearch",
  "summary": "Puppet Module for deploying g10k",
  "license": "GPL-3.0+",
  "source": "https://bitbucket.org/landcareresearch/puppet-g10k",
  "project_page": "https://bitbucket.org/landcareresearch/puppet-g10k",
  "issues_url": "https://bitbucket.org/landcareresearch/puppet-g10k/issues",
  "dependencies": [
    {
      "name": "puppet/archive",
      "version_requirement": ">= 4.4.0 < 5.0.0"
    },
    {
      "name": "puppetlabs/stdlib",
      "version_requirement": ">= 5.0.0 < 7.0.0"
    }
  ],
  "operatingsystem_support": [
    {
      "operatingsystem": "Ubuntu",
      "operatingsystemrelease": [
        "14.04",
        "16.04",
        "18.04"
      ]
    }
  ],
  "requirements": [
    {
      "name": "puppet",
      "version_requirement": ">= 4.7.0 < 7.0.0"
    }
  ],
  "pdk-version": "1.15.0",
  "template-url": "pdk-default#1.15.0",
  "template-ref": "tags/1.15.0-0-g0bc522e"
}
